[gd_scene load_steps=3 format=3 uid="uid://bacsewpn2rqj4"]

[ext_resource type="Texture2D" uid="uid://67rptiq6xgwk" path="res://textures/bakery.png" id="1_yap30"]

[sub_resource type="RectangleShape2D" id="RectangleShape2D_qweo0"]
size = Vector2(183, 224)

[node name="StaticBody2D" type="StaticBody2D"]

[node name="Bakery" type="Sprite2D" parent="."]
texture = ExtResource("1_yap30")

[node name="CollisionShape2D" type="CollisionShape2D" parent="."]
position = Vector2(-9.5, 4)
shape = SubResource("RectangleShape2D_qweo0")
